{
    "KPlugin": {
        "Authors": [
            {
                "Email": "sebas@kde.org",
                "Name": "Sebastian Kügler",
                "Name[az]": "Sebastian Kügler",
                "Name[ca@valencia]": "Sebastian Kügler",
                "Name[ca]": "Sebastian Kügler",
                "Name[cs]": "Sebastian Kügler",
                "Name[en_GB]": "Sebastian Kügler",
                "Name[es]": "Sebastian Kügler",
                "Name[eu]": "Sebastian Kügler",
                "Name[fi]": "Sebastian Kügler",
                "Name[fr]": "Sebastian Kügler",
                "Name[id]": "Sebastian Kügler",
                "Name[it]": "Sebastian Kügler",
                "Name[ko]": "Sebastian Kügler",
                "Name[nl]": "Sebastian Kügler",
                "Name[nn]": "Sebastian Kügler",
                "Name[pl]": "Sebastian Kügler",
                "Name[pt]": "Sebastian Kügler",
                "Name[ru]": "Sebastian Kügler",
                "Name[sl]": "Sebastian Kügler",
                "Name[sv]": "Sebastian Kügler",
                "Name[tr]": "Sebastian Kügler",
                "Name[uk]": "Sebastian Kügler",
                "Name[vi]": "Sebastian Kügler",
                "Name[x-test]": "xxSebastian Küglerxx",
                "Name[zh_CN]": "Sebastian Kügler"
            }
        ],
        "Category": "Development",
        "Description": "Basic App",
        "Description[az]": "Əsas tətbiq",
        "Description[ca@valencia]": "Aplicació bàsica",
        "Description[ca]": "Aplicació bàsica",
        "Description[en_GB]": "Basic App",
        "Description[es]": "Aplicación básica",
        "Description[eu]": "Oinarrizko aplikazioa",
        "Description[fi]": "Perussovelma",
        "Description[fr]": "Application de base",
        "Description[id]": "Aplikasi Dasar",
        "Description[it]": "Applicazione di base",
        "Description[ko]": "기본 앱",
        "Description[nl]": "Basis app",
        "Description[nn]": "Grunnleggjande program",
        "Description[pl]": "Podstawowa aplikacja",
        "Description[pt]": "Aplicação Básica",
        "Description[sl]": "Osnovna aplikacija",
        "Description[sv]": "Enkel applikation",
        "Description[tr]": "Yalın Uygulama",
        "Description[uk]": "Базова програма",
        "Description[vi]": "Ứng dụng cơ bản",
        "Description[x-test]": "xxBasic Appxx",
        "Description[zh_CN]": "基本应用程序",
        "Icon": "kbugbuster",
        "Id": "org.kde.example.developerguide.basic",
        "License": "LGPLv2+",
        "Name": "Bug",
        "Name[az]": "Xəta",
        "Name[ca@valencia]": "Error",
        "Name[ca]": "Error",
        "Name[cs]": "Brouk",
        "Name[en_GB]": "Bug",
        "Name[es]": "Fallo",
        "Name[eu]": "Akatsa",
        "Name[fi]": "Ohjelmavirhe",
        "Name[fr]": "Bogue",
        "Name[id]": "Bug",
        "Name[it]": "Bug",
        "Name[ko]": "버그",
        "Name[nl]": "Bug",
        "Name[nn]": "Feil",
        "Name[pl]": "Błąd",
        "Name[pt]": "Insecto",
        "Name[ru]": "Ошибка",
        "Name[sl]": "Hrošč",
        "Name[sv]": "Fel",
        "Name[ta]": "பிழை",
        "Name[tr]": "Hata",
        "Name[uk]": "Вада",
        "Name[vi]": "Lỗi",
        "Name[x-test]": "xxBugxx",
        "Name[zh_CN]": "程序缺陷",
        "ServiceTypes": [
            "KPackage/GenericQML"
        ],
        "Version": "1.0",
        "Website": "https://www.kde.org"
    },
    "X-Plasma-API": "declarativeappletscript",
    "X-Plasma-MainScript": "ui/main.qml"
}
